{
  "app-id": "com.github.alexkdeveloper.guessnumber",
  "runtime": "io.elementary.Platform",
  "runtime-version": "6.1",
  "sdk": "io.elementary.Sdk",
  "command": "com.github.alexkdeveloper.guessnumber",
  "finish-args": [
     "--share=ipc",
     "--socket=fallback-x11",
     "--socket=wayland"
  ],
  "cleanup": [
     "/include",
     "/lib/pkgconfig",
     "/man",
     "/share/doc",
     "/share/gtk-doc",
     "/share/man",
     "/share/pkgconfig",
     "/share/vala",
     "*.la",
     "*.a"
  ],
  "modules": [
     {
        "name": "guessnumber",
        "buildsystem": "meson",
        "sources": [
            {
                "type": "dir",
                "path": "."
            }
        ]
      }
  ]
}
